clave|valor
"ABU"|"ABUELO(A)"
"NIE"|"NIETO(A)"
"TIOA"|"TIO(A)"
"AHI"|"AHIJADO(A)"
"NUE"|"NUERA"
"YER"|"YERNO"
"CUN"|"CUÑADO(A)"
"PAD"|"PADRE"
"HER"|"HERMANO(A)"
"PRI"|"PRIMO(A)"
"HIJ"|"HIJO(A)"
"SOB"|"SOBRINO(A)"
"MAD"|"MADRE"
"SUE"|"SUEGRO(A)"
"NIN"|"NINGUNO"
"OTRO"|"OTRO(ESPECIFIQUE)"